00:00	81 129 142 213 67 93 145 179 222 89 72 171 194 216 133 156 234 79 81 142 163 214 92 89 115 180 276 91 104 149 184 228 85 86 138 163 238 82 98 158 190 262 81 113 159 191 271 69 58 140 178 254 75 94 155 175 225 85 80 152 204 264
00:30	67 53 159 90 57 56 68 177 75 68 61 69 160 98 77 156 91 64 62 69 177 85 78 62 67 194 99 68 76 97 162 99 55 62 83 156 100 67 77 67 191 97 86 59 81 190 89 66 77 71 167 92 58 64 63 165 92 59 64 71 155 108
01:00	44 53 127 70 64 50 68 121 103 60 67 69 119 75 49 113 88 50 59 64 129 85 56 52 47 135 88 50 65 103 129 87 51 54 69 108 80 60 64 68 160 59 46 60 62 138 87 66 62 51 143 78 49 53 63 132 71 41 54 68 134 82
01:30	48 38 104 49 51 43 41 106 61 40 46 45 112 48 64 103 71 42 38 63 102 48 34 49 58 95 67 37 36 71 91 72 44 43 55 95 71 34 46 42 108 66 37 51 46 104 56 31 53 53 99 68 46 61 45 88 57 42 51 41 100 66
02:00	43 42 54 46 42 28 38 76 54 28 34 25 75 57 42 71 63 32 35 45 62 36 19 47 37 74 56 23 45 62 71 41 32 36 45 67 47 26 42 37 95 48 30 46 50 82 58 29 45 46 57 51 22 33 31 84 54 44 38 33 76 61
02:30	23 25 54 54 27 36 32 47 38 26 29 28 61 40 53 59 50 29 25 33 53 27 21 39 38 59 38 27 38 40 56 42 29 27 31 60 43 25 32 24 65 45 20 40 24 57 30 26 27 21 74 40 20 28 24 75 46 33 34 29 50 40
03:00	31 37 46 40 39 37 40 74 39 29 25 44 72 61 47 74 44 23 31 45 87 42 30 45 44 67 43 27 31 46 58 39 26 51 40 52 46 31 27 27 76 61 27 45 34 54 47 17 35 34 69 48 29 34 47 61 49 19 27 34 71 44
03:30	17 17 33 27 17 23 26 48 27 21 22 20 53 23 26 48 24 23 20 30 44 26 15 29 18 55 23 13 18 21 38 26 17 18 35 51 25 16 20 17 36 36 17 24 23 52 23 16 24 20 37 30 18 27 28 36 36 21 18 24 61 39
04:00	14 16 37 21 11 13 11 26 21 19 22 24 40 21 22 37 25 13 10 10 29 22 21 20 11 31 16 12 12 12 42 17 22 9 16 31 21 18 9 16 36 16 14 18 15 34 20 8 19 9 38 21 14 15 12 45 13 15 20 19 34 18
04:30	10 8 32 14 5 10 12 29 11 6 10 14 16 19 14 15 20 9 8 13 20 12 16 15 8 15 10 8 15 13 18 14 15 15 8 25 7 4 9 11 20 11 4 14 6 34 8 6 8 8 16 12 6 11 18 31 11 10 14 9 22 14
05:00	7 9 15 15 5 8 13 14 12 11 7 10 22 7 17 25 15 10 11 12 19 11 17 9 11 13 9 11 14 10 11 12 7 11 8 15 15 9 14 8 17 9 8 19 10 13 11 3 10 6 15 8 7 7 9 14 13 11 13 12 9 14
05:30	18 14 13 15 10 9 13 13 16 10 13 15 19 9 9 10 11 16 16 16 15 11 18 15 13 9 15 8 13 17 10 11 14 8 17 8 12 14 12 14 12 14 13 11 19 15 18 10 12 9 14 15 8 10 15 10 17 12 8 12 11 14
06:00	15 16 23 17 17 14 21 18 13 16 14 13 6 19 14 13 15 15 15 19 13 12 30 18 13 14 22 13 14 10 10 13 13 14 18 14 13 14 9 18 21 10 14 11 23 20 26 10 15 15 18 18 25 10 17 12 21 19 15 21 20 20
06:30	21 22 34 28 24 29 36 33 32 37 21 30 30 30 21 34 32 29 24 27 28 31 73 35 32 31 39 24 29 30 32 28 22 39 34 36 40 25 34 34 31 31 36 39 37 30 45 39 35 26 43 35 37 30 27 30 33 33 28 26 31 35
07:00	34 36 39 33 53 38 47 42 46 48 37 47 44 49 46 37 55 40 46 32 40 44 101 49 37 41 46 39 35 43 31 45 41 33 41 35 45 48 49 36 51 37 47 51 42 42 50 48 50 41 52 58 47 40 34 41 39 40 46 43 42 53
07:30	86 58 63 86 93 66 83 83 104 109 91 96 89 68 81 84 91 79 71 85 78 76 99 77 57 91 88 69 68 75 89 85 84 81 93 74 92 69 89 82 83 76 96 88 66 68 74 72 88 64 105 85 75 78 76 69 76 90 84 91 95 99
08:00	100 117 108 119 111 108 135 113 104 117 119 131 131 127 117 118 123 122 108 100 119 136 126 108 109 128 135 129 123 131 110 130 120 123 139 119 132 101 127 119 111 110 120 114 135 123 105 116 119 87 168 142 134 137 137 130 125 132 133 140 129 147
08:30	197 183 191 199 193 180 191 183 177 167 170 182 178 192 179 202 199 192 174 194 186 184 165 160 193 183 173 174 171 170 196 188 183 153 181 176 164 123 160 170 169 160 176 204 181 191 191 180 188 123 238 217 197 229 191 224 201 180 214 180 176 197
09:00	227 198 256 243 274 255 276 300 274 261 250 263 224 247 202 281 292 275 289 268 270 283 284 274 297 255 234 261 265 257 256 261 274 254 265 282 287 201 303 280 267 253 286 271 316 252 278 283 299 214 374 292 291 315 285 318 291 317 291 259 259 270
09:30	232 248 262 279 297 270 269 285 302 287 285 290 256 287 174 260 256 276 296 322 347 325 289 317 306 270 277 266 289 278 257 271 282 334 276 302 303 247 303 306 312 313 331 325 341 354 303 288 296 274 329 303 291 274 255 282 310 266 277 323 284 296
10:00	195 245 226 217 224 245 229 229 230 221 230 198 209 211 150 210 186 194 232 253 205 274 239 239 229 239 241 246 230 231 226 246 230 236 209 247 261 243 241 236 244 242 255 258 284 259 257 217 219 242 308 221 228 229 246 237 232 241 249 216 229 210
10:30	187 195 165 208 198 244 227 190 233 208 227 235 210 203 153 190 223 207 222 239 235 246 223 256 194 206 225 223 201 212 223 251 217 221 214 211 252 217 227 257 233 242 226 211 269 222 239 212 219 239 243 250 197 238 239 195 197 195 221 222 215 230
11:00	130 172 188 203 177 175 174 193 201 187 184 169 176 181 153 166 188 179 185 202 206 190 179 190 198 203 250 190 186 197 192 232 177 178 186 195 218 184 176 213 219 192 214 188 213 199 229 167 189 192 220 191 164 200 176 187 189 174 181 182 190 199
11:30	131 152 136 184 173 177 198 169 187 176 195 186 195 196 134 162 206 170 210 206 187 175 226 217 193 186 217 190 210 195 200 180 157 183 177 191 199 185 193 202 211 236 171 148 198 208 199 170 212 223 229 195 195 179 166 176 177 216 190 192 172 196
12:00	146 171 166 212 174 168 182 201 224 174 236 219 237 164 170 221 220 211 214 212 200 233 196 233 236 186 234 225 245 207 216 206 196 200 219 191 203 187 207 221 215 219 175 212 202 230 205 207 230 243 262 241 193 211 214 225 226 206 234 213 209 244
12:30	135 177 161 202 179 167 194 236 203 188 195 234 216 199 140 213 232 181 183 209 221 228 200 209 200 216 213 206 220 216 208 222 165 199 196 217 210 192 218 203 184 219 200 180 177 204 193 161 213 195 226 238 199 177 181 206 219 190 185 202 213 249
13:00	163 171 149 152 159 183 157 159 205 191 169 196 168 168 146 136 160 155 149 157 200 183 153 157 159 148 194 148 168 169 202 186 155 137 174 159 196 160 168 196 177 201 158 174 159 190 202 163 190 191 197 206 141 180 155 182 194 190 172 157 161 197
13:30	151 180 201 205 195 203 169 185 191 182 197 177 186 138 139 167 177 182 174 199 186 188 176 160 175 191 172 182 190 163 202 202 179 167 174 194 210 171 172 190 190 186 158 183 199 182 220 190 206 209 216 191 179 177 172 171 204 190 186 195 178 176
14:00	178 184 197 189 173 211 182 167 191 224 189 184 181 161 153 159 187 173 169 184 183 182 174 172 179 197 219 183 174 183 172 180 180 180 204 190 203 172 177 190 197 239 170 209 214 200 193 200 184 182 213 229 196 191 209 185 212 169 166 197 209 185
14:30	154 174 191 178 196 162 161 187 209 174 188 188 168 161 130 183 210 177 183 194 178 203 190 158 177 178 181 181 184 172 185 195 183 191 191 189 183 156 149 181 199 202 151 173 171 190 194 179 196 200 181 185 164 199 168 169 207 193 165 184 167 193
15:00	152 156 173 177 159 176 150 159 172 162 174 143 159 155 124 158 172 148 175 195 174 184 151 157 183 143 184 166 175 191 182 143 164 144 144 182 174 162 202 173 176 165 184 181 202 172 159 129 163 175 169 167 164 145 177 173 164 135 160 168 182 167
15:30	133 153 168 161 155 152 145 165 161 169 142 164 138 118 128 135 185 167 132 178 164 166 159 183 161 171 171 169 157 169 162 153 185 172 172 166 154 161 173 166 167 158 144 158 145 167 147 131 158 141 161 141 171 153 157 166 160 154 132 157 180 169
16:00	142 167 159 156 156 160 169 146 140 149 152 163 141 126 110 150 165 142 120 180 196 185 158 168 153 156 152 156 149 154 146 166 146 155 167 153 190 153 146 156 169 171 182 168 164 157 175 161 144 166 167 173 160 158 169 155 169 122 166 174 138 167
16:30	118 116 149 151 137 120 143 137 148 151 133 139 135 91 97 148 140 172 137 141 142 175 153 138 164 146 170 142 162 137 155 161 126 117 153 147 162 133 152 156 138 147 146 150 132 157 153 138 144 144 171 160 151 145 169 134 149 149 142 147 153 166
17:00	110 119 128 149 126 153 148 145 142 127 126 137 137 103 93 150 170 125 143 123 157 178 128 144 140 147 151 135 142 149 140 160 139 127 147 159 150 138 133 142 147 136 123 159 163 157 154 150 137 171 158 172 126 153 155 137 149 145 121 160 166 169
17:30	121 138 140 138 121 131 153 165 137 117 123 142 127 106 112 176 187 121 140 149 175 162 122 139 142 164 170 169 149 184 152 161 132 140 170 159 178 149 138 159 166 141 143 125 153 142 179 143 144 169 161 185 147 176 169 148 160 154 157 144 173 173
18:00	117 161 162 150 168 154 167 166 178 159 147 143 146 127 157 195 207 134 131 179 165 201 160 174 189 160 165 159 189 186 148 195 180 188 199 193 191 152 140 212 179 152 132 163 190 192 168 166 156 204 176 214 172 175 164 160 177 144 161 152 170 158
18:30	164 172 183 198 191 205 224 172 205 195 177 178 195 167 194 217 235 180 177 234 214 210 172 167 242 235 203 182 210 243 196 233 186 197 230 239 238 182 215 234 213 199 197 223 223 217 243 197 188 210 236 251 184 235 207 188 222 195 173 241 250 235
19:00	164 194 209 209 197 252 255 255 246 221 200 245 209 220 168 257 315 212 205 272 263 291 199 268 314 272 288 232 316 278 254 329 221 244 277 280 319 194 230 259 273 244 161 220 275 255 318 198 245 298 289 271 218 255 325 270 291 219 224 265 261 293
19:30	176 202 221 283 179 224 279 254 348 168 230 282 229 284 184 244 324 190 211 243 257 349 190 278 258 249 360 204 326 256 278 371 196 238 255 249 377 206 255 262 278 319 191 220 280 263 429 189 233 308 291 379 188 237 234 259 400 193 236 283 279 372
20:00	161 212 170 295 161 181 235 217 378 190 178 227 213 290 225 209 328 172 169 215 249 364 195 213 232 224 355 187 320 236 215 370 175 215 246 216 352 196 180 210 245 387 179 201 223 218 359 158 191 254 237 353 187 215 233 220 311 176 189 243 217 364
20:30	159 185 167 312 136 160 189 210 371 139 187 186 175 267 175 191 294 144 169 159 196 346 137 181 233 181 342 164 274 191 197 332 168 158 191 196 352 136 193 225 237 351 143 154 202 204 327 145 184 199 217 312 156 193 203 201 362 137 166 192 195 326
21:00	134 163 150 266 119 126 167 152 313 130 149 165 136 264 182 162 294 119 169 149 163 307 128 156 200 156 304 147 242 211 157 364 118 168 180 180 348 131 160 177 184 333 129 121 183 173 316 129 157 202 173 343 137 164 171 164 317 161 145 173 156 329
21:30	112 177 117 254 122 128 166 136 326 113 114 182 145 294 204 170 296 112 114 167 103 339 123 117 182 135 350 124 193 165 172 313 125 155 192 176 339 119 118 190 148 293 140 136 178 150 294 106 141 206 125 342 123 126 180 138 287 123 129 160 149 293
22:00	100 177 135 305 109 109 216 129 320 110 116 217 148 316 225 160 318 108 116 191 117 346 129 125 194 157 345 120 192 203 150 361 124 124 228 149 372 125 118 239 143 331 120 132 190 147 307 106 109 210 147 338 123 125 199 121 360 132 114 201 132 341
22:30	88 193 124 337 114 135 232 140 393 112 130 219 145 427 226 138 379 93 98 190 129 383 124 128 211 156 393 138 163 233 179 422 121 145 256 160 402 121 118 262 178 358 111 121 257 134 376 113 144 254 131 379 131 148 270 159 358 99 127 251 126 389
23:00	94 212 121 328 103 110 284 120 379 119 102 235 136 359 240 135 382 86 109 255 128 390 123 119 224 162 480 111 147 253 154 412 96 113 246 139 422 85 132 299 158 403 106 124 253 116 423 81 120 246 142 383 110 121 219 142 391 102 126 250 158 385
23:30	80 219 123 337 99 101 302 129 403 95 92 255 163 405 217 144 360 78 99 266 138 342 124 118 255 144 453 98 176 246 126 416 87 121 283 127 423 92 120 330 147 406 90 114 243 142 429 94 94 246 147 400 76 98 265 147 419 100 91 241 138 424
